{
  "files": {
    "static/js/0.0710a3ef.chunk.js": "/static/js/0.0710a3ef.chunk.js",
    "static/js/0.0710a3ef.chunk.js.map": "/static/js/0.0710a3ef.chunk.js.map",
    "static/js/1.955cd452.chunk.js": "/static/js/1.955cd452.chunk.js",
    "static/js/1.955cd452.chunk.js.map": "/static/js/1.955cd452.chunk.js.map",
    "main.js": "/static/js/main.7e3b9a07.chunk.js",
    "main.js.map": "/static/js/main.7e3b9a07.chunk.js.map",
    "runtime-main.js": "/static/js/runtime-main.923fb673.js",
    "runtime-main.js.map": "/static/js/runtime-main.923fb673.js.map",
    "static/css/4.0a00179b.chunk.css": "/static/css/4.0a00179b.chunk.css",
    "static/js/4.2d9f56af.chunk.js": "/static/js/4.2d9f56af.chunk.js",
    "static/js/4.2d9f56af.chunk.js.map": "/static/js/4.2d9f56af.chunk.js.map",
    "static/js/5.51c3dd29.chunk.js": "/static/js/5.51c3dd29.chunk.js",
    "static/js/5.51c3dd29.chunk.js.map": "/static/js/5.51c3dd29.chunk.js.map",
    "static/js/6.6db33274.chunk.js": "/static/js/6.6db33274.chunk.js",
    "static/js/6.6db33274.chunk.js.map": "/static/js/6.6db33274.chunk.js.map",
    "static/js/7.7b0f3941.chunk.js": "/static/js/7.7b0f3941.chunk.js",
    "static/js/7.7b0f3941.chunk.js.map": "/static/js/7.7b0f3941.chunk.js.map",
    "static/js/8.8242d8f9.chunk.js": "/static/js/8.8242d8f9.chunk.js",
    "static/js/8.8242d8f9.chunk.js.map": "/static/js/8.8242d8f9.chunk.js.map",
    "static/js/9.91d10bfd.chunk.js": "/static/js/9.91d10bfd.chunk.js",
    "static/js/9.91d10bfd.chunk.js.map": "/static/js/9.91d10bfd.chunk.js.map",
    "static/js/10.6abc7f86.chunk.js": "/static/js/10.6abc7f86.chunk.js",
    "static/js/10.6abc7f86.chunk.js.map": "/static/js/10.6abc7f86.chunk.js.map",
    "static/js/11.8118eee3.chunk.js": "/static/js/11.8118eee3.chunk.js",
    "static/js/11.8118eee3.chunk.js.map": "/static/js/11.8118eee3.chunk.js.map",
    "index.html": "/index.html",
    "service-worker.js": "/service-worker.js",
    "service-worker.js.map": "/service-worker.js.map",
    "static/css/4.0a00179b.chunk.css.map": "/static/css/4.0a00179b.chunk.css.map",
    "static/js/4.2d9f56af.chunk.js.LICENSE.txt": "/static/js/4.2d9f56af.chunk.js.LICENSE.txt",
    "static/js/6.6db33274.chunk.js.LICENSE.txt": "/static/js/6.6db33274.chunk.js.LICENSE.txt"
  },
  "entrypoints": [
    "static/js/runtime-main.923fb673.js",
    "static/css/4.0a00179b.chunk.css",
    "static/js/4.2d9f56af.chunk.js",
    "static/js/main.7e3b9a07.chunk.js"
  ]
}